[
  {
    "id": "001", 
    "name": "RPL_WELCOME", 
    "message": "Welcome to the Internet Relay Network <nick>!<user>@<host>"
  }, 

  {
    "id": "002", 
    "name": "RPL_YOURHOST", 
    "message": "Your host is <servername>, running version <ver>"
  }, 

  {
    "id": "003", 
    "name": "RPL_CREATED", 
    "message": "This server was created <date>"
  }, 

  {
    "id": "004", 
    "name": "RPL_MYINFO", 
    "message": "<servername> <version> <available user modes> <available channel modes>", 
    "description": "The server sends Replies 001 to 004 to a user upon successful registration."
  }, 

  {
    "id": "005", 
    "name": "RPL_BOUNCE", 
    "message": "Try server <server name>, port <port number>", 
    "description": "Sent by the server to a user to suggest an alternative server.  This is often used when the connection is refused because the server is already full."
  }, 

  {
    "id": "302", 
    "name": "RPL_USERHOST", 
    "message": ":*1<reply> *( ' ' <reply> )", 
    "description": "Reply format used by USERHOST to list replies to the query list."
  }, 

  {
    "id": "303", 
    "name": "RPL_ISON", 
    "message": ":*1<nick> *( ' ' <nick> )", 
    "description": "Reply format used by ISON to list replies to the query list."
  }, 

  {
    "id": "301", 
    "name": "RPL_AWAY", 
    "message": "<nick> :<away message>"
  }, 

  {
    "id": "305", 
    "name": "RPL_UNAWAY", 
    "message": ":You are no longer marked as being away"
  }, 

  {
    "id": "306", 
    "name": "RPL_NOWAWAY", 
    "message": ":You have been marked as being away", 
    "description": "These replies are used with the AWAY command (if allowed)."
  }, 

  {
    "id": "311", 
    "name": "RPL_WHOISUSER", 
    "message": "<nick> <user> <host> * :<real name>"
  }, 

  {
    "id": "312", 
    "name": "RPL_WHOISSERVER", 
    "message": "<nick> <server> :<server info>"
  }, 

  {
    "id": "313", 
    "name": "RPL_WHOISOPERATOR", 
    "message": "<nick> :is an IRC operator"
  }, 

  {
    "id": "317", 
    "name": "RPL_WHOISIDLE", 
    "message": "<nick> <integer> :seconds idle"
  }, 

  {
    "id": "318", 
    "name": "RPL_ENDOFWHOIS", 
    "message": "<nick> :End of WHOIS list"
  }, 

  {
    "id": "319", 
    "name": "RPL_WHOISCHANNELS", 
    "message": "<nick> :<channel>"
  }, 

  {
    "id": "314", 
    "name": "RPL_WHOWASUSER", 
    "message": "<nick> <user> <host> * :<real name>"
  }, 

  {
    "id": "369", 
    "name": "RPL_ENDOFWHOWAS", 
    "message": "<nick> :End of WHOWAS", 
    "description": "When replying to a WHOWAS message, a server MUST use the replies RPL_WHOWASUSER, RPL_WHOISSERVER or ERR_WASNOSUCHNICK for each nickname in the presented list.  At the end of all reply batches, there MUST be RPL_ENDOFWHOWAS (even if there was only one reply and it was an error)."
  }, 

  {
    "id": "321", 
    "name": "RPL_LISTSTART", 
    "message": "Obsolete. Not used."
  }, 

  {
    "id": "322", 
    "name": "RPL_LIST", 
    "message": "<channel> <visible> :<topic>"
  }, 

  {
    "id": "323", 
    "name": "RPL_LISTEND", 
    "message": ":End of LIST", 
    "description": "Replies RPL_LIST, RPL_LISTEND mark the actual replies with data and end of the server's response to a LISTcommand. If there are no channels available to return, only the end reply MUST be sent."
  }, 

  {
    "id": "325", 
    "name": "RPL_UNIQOPIS", 
    "message": "<channel> <nickname>"
  }, 

  {
    "id": "324", 
    "name": "RPL_CHANNELMODEIS", 
    "message": "<channel> <mode> <mode params>"
  }, 

  {
    "id": "331", 
    "name": "RPL_NOTOPIC", 
    "message": "<channel> :No topic is set"
  }, 

  {
    "id": "332", 
    "name": "RPL_TOPIC", 
    "message": "<channel> :<topic>", 
    "description": "When sending a TOPIC message to determine the channel topic, one of two replies is sent. If the topic is set, RPL_TOPIC is sent back else RPL_NOTOPIC."
  }, 

  {
    "id": "341", 
    "name": "RPL_INVITING", 
    "message": "<channel> <nick>", 
    "description": "Returned by the server to indicate that the attempted INVITE message was successful and is being passed onto the end client."
  }, 

  {
    "id": "342", 
    "name": "RPL_SUMMONING", 
    "message": "<user> :Summoning user to IRC", 
    "description": "Returned by a server answering a SUMMON message to indicate that it is summoning that user."
  }, 

  {
    "id": "346", 
    "name": "RPL_INVITELIST", 
    "message": "<channel> <invitemask>"
  }, 

  {
    "id": "347", 
    "name": "RPL_ENDOFINVITELIST", 
    "message": "<channel> :End of channel invite list", 
    "description": "When listing the 'invitations masks' for a given channel, a server is required to send the list back using the RPL_INVITELIST and RPL_ENDOFINVITELIST messages.  A separate RPL_INVITELIST is sent for each active mask. After the masks have been listed (or if none present) a RPL_ENDOFINVITELIST MUST be sent."
  }, 

  {
    "id": "348", 
    "name": "RPL_EXCEPTLIST", 
    "message": "<channel> <exceptionmask>"
  }, 

  {
    "id": "349", 
    "name": "RPL_ENDOFEXCEPTLIST", 
    "message": "<channel> :End of channel exception list", 
    "description": "When listing the 'exception masks' for a given channel, a server is required to send the list back using the RPL_EXCEPTLIST and RPL_ENDOFEXCEPTLIST messages.  A separate RPL_EXCEPTLIST is sent for each active mask. After the masks have been listed (or if none present) a RPL_ENDOFEXCEPTLIST MUST be sent."
  }, 

  {
    "id": "351", 
    "name": "RPL_VERSION", 
    "message": "<version>.<debuglevel> <server> :<comments>", 
    "description": "Reply by the server showing its version details. The <version> is the version of the software being used (including any patchlevel revisions) and the <debuglevel> is used to indicate if the server is running in debug mode. The comments field may contain any comments about the version or further version details."
  }, 

  {
    "id": "352", 
    "name": "RPL_WHOREPLY", 
    "message": "<channel> <user> <host> <server> <nick>( 'H' / 'G' > ['*'] [ ( '@' / '+' ) ]:<hopcount> <real name>"
  }, 

  {
    "id": "315", 
    "name": "RPL_ENDOFWHO", 
    "message": "<name> :End of WHO list", 
    "description": "The RPL_WHOREPLY and RPL_ENDOFWHO pair are used to answer a WHO message.  The RPL_WHOREPLY is only sent if there is an appropriate match to the WHO query.  If there is a list of parameters supplied with a WHO message, a RPL_ENDOFWHO MUST be sent after processing each list item with <name> being the item."
  }, 

  {
    "id": "353", 
    "name": "RPL_NAMREPLY", 
    "message": "<type> <channel> :<nicks>", 
    "description": "'@' is used for secret channels, '*' for private channels, and '=' for others (public channels)."
  }, 

  {
    "id": "366", 
    "name": "RPL_ENDOFNAMES", 
    "message": "<channel> :End of NAMES list", 
    "description": "To reply to a NAMES message, a reply pair consisting of RPL_NAMREPLY and RPL_ENDOFNAMES is sent by the server back to the client.  If there is no channel found as in the query, then only RPL_ENDOFNAMES is returned.  The exception to this is when a NAMES message is sent with no parameters and all visible channels and contents are sent back in a series of RPL_NAMEREPLY messages with a RPL_ENDOFNAMES to mark the end."
  }, 

  {
    "id": "364", 
    "name": "RPL_LINKS", 
    "message": "<mask> <server> :<hopcount> <server info>"
  }, 

  {
    "id": "365", 
    "name": "RPL_ENDOFLINKS", 
    "message": "<mask> :End of LINKS list", 
    "description": "In replying to the LINKS message, a server MUST send replies back using the RPL_LINKS numeric and mark the end of the list using an RPL_ENDOFLINKS reply."
  }, 

  {
    "id": "367", 
    "name": "RPL_BANLIST", 
    "message": "<channel> <banmask>"
  }, 

  {
    "id": "368", 
    "name": "RPL_ENDOFBANLIST", 
    "message": "<channel> :End of channel ban list", 
    "description": "When listing the active 'bans' for a given channel, a server is required to send the list back using the RPL_BANLIST and RPL_ENDOFBANLIST messages.  A separate RPL_BANLIST is sent for each active banmask.  After the banmasks have been listed (or if none present) a RPL_ENDOFBANLIST MUST be sent."
  }, 

  {
    "id": "371", 
    "name": "RPL_INFO", 
    "message": ":<string>"
  }, 

  {
    "id": "374", 
    "name": "RPL_ENDOFINFO", 
    "message": ":End of INFO list", 
    "description": "A server responding to an INFO message is required to send all its 'info' in a series of RPL_INFO messages with a RPL_ENDOFINFO reply to indicate the end of the replies."
  }, 

  {
    "id": "375", 
    "name": "RPL_MOTDSTART", 
    "message": ":- <server> Message of the day - "
  }, 

  {
    "id": "372", 
    "name": "RPL_MOTD", 
    "message": ":- <text>"
  }, 

  {
    "id": "376", 
    "name": "RPL_ENDOFMOTD", 
    "message": ":End of MOTD command", 
    "description": "When responding to the MOTD message and the MOTD file is found, the file is displayed line by line, with each line no longer than 80 characters, using RPL_MOTD format replies.  These MUST be surrounded by a RPL_MOTDSTART (before the RPL_MOTDs) and an RPL_ENDOFMOTD (after)."
  }, 

  {
    "id": "381", 
    "name": "RPL_YOUREOPER", 
    "message": ":You are now an IRC operator", 
    "description": "RPL_YOUREOPER is sent back to a client which has just successfully issued an OPER message and gained operator status."
  }, 

  {
    "id": "382", 
    "name": "RPL_REHASHING", 
    "message": "<config file> :Rehashing", 
    "description": "If the REHASH option is used and an operator sends a REHASH message, an RPL_REHASHING is sent back to the operator."
  }, 

  {
    "id": "383", 
    "name": "RPL_YOURESERVICE", 
    "message": "You are service <servicename>", 
    "description": "Sent by the server to a service upon successful registration."
  }, 

  {
    "id": "391", 
    "name": "RPL_TIME", 
    "message": "<server> :<string showing server's local time>", 
    "description": "When replying to the TIME message, a server MUST send the reply using the RPL_TIME format above.  The string showing the time need only contain the correct day and time there.  There is no further requirement for the time string."
  }, 

  {
    "id": "392", 
    "name": "RPL_USERSSTART", 
    "message": ":UserID   Terminal  Host"
  }, 

  {
    "id": "393", 
    "name": "RPL_USERS", 
    "message": ":<username> <ttyline> <hostname>"
  }, 

  {
    "id": "394", 
    "name": "RPL_ENDOFUSERS", 
    "message": ":End of users"
  }, 

  {
    "id": "395", 
    "name": "RPL_NOUSERS", 
    "message": ":Nobody logged in", 
    "description": "If the USERS message is handled by a server, the replies RPL_USERSTART, RPL_USERS, RPL_ENDOFUSERS and RPL_NOUSERS are used.  RPL_USERSSTART MUST be sent first, following by either a sequence of RPL_USERS or a single RPL_NOUSER.  Following this is RPL_ENDOFUSERS."
  }, 

  {
    "id": "200", 
    "name": "RPL_TRACELINK", 
    "message": "Link <version & debug level> <destination> <next server> V<protocol version> <link uptime in seconds> <backstream sendq> <upstream sendq>"
  }, 

  {
    "id": "201", 
    "name": "RPL_TRACECONNECTING", 
    "message": "Try. <class> <server>"
  }, 

  {
    "id": "202", 
    "name": "RPL_TRACEHANDSHAKE", 
    "message": "H.S. <class> <server>"
  }, 

  {
    "id": "203", 
    "name": "RPL_TRACEUNKNOWN", 
    "message": "???? <class> [<client IP address in dot form>]"
  }, 

  {
    "id": "204", 
    "name": "RPL_TRACEOPERATOR", 
    "message": "Oper <class> <nick>"
  }, 

  {
    "id": "205", 
    "name": "RPL_TRACEUSER", 
    "message": "User <class> <nick>"
  }, 

  {
    "id": "206", 
    "name": "RPL_TRACESERVER", 
    "message": "Serv <class> <int>S <int>C <server> <nick!user|*!*>@<host|server> V<protocol version>"
  }, 

  {
    "id": "207", 
    "name": "RPL_TRACESERVICE", 
    "message": "Service <class> <name> <type> <active type>"
  }, 

  {
    "id": "208", 
    "name": "RPL_TRACENEWTYPE", 
    "message": "<newtype> 0 <client name>"
  }, 

  {
    "id": "209", 
    "name": "RPL_TRACECLASS", 
    "message": "Class <class> <count>"
  }, 

  {
    "id": "210", 
    "name": "RPL_TRACERECONNECT", 
    "message": "Unused."
  }, 

  {
    "id": "261", 
    "name": "RPL_TRACELOG", 
    "message": "File <logfile> <debug level>"
  }, 

  {
    "id": "262", 
    "name": "RPL_TRACEEND", 
    "message": "<server name> <version & debug level> :End of TRACE", 
    "description": "The RPL_TRACE* are all returned by the server in response to the TRACE message.  How many are returned is dependent on the TRACE message and whether it was sent by an operator or not. There is no predefined order for which occurs first. Replies RPL_TRACEUNKNOWN, RPL_TRACECONNECTING and RPL_TRACEHANDSHAKE are all used for connections which have not been fully established and are either unknown, still attempting to connect or in the process of completing the 'server handshake'. RPL_TRACELINK is sent by any server which handles a TRACE message and has to pass it on to another server.  The list of RPL_TRACELINKs sent in response to a TRACE command traversing the IRC network should reflect the actual connectivity of the servers themselves along that path. RPL_TRACENEWTYPE is to be used for any connection which does not fit in the other categories but is being displayed anyway. RPL_TRACEEND is sent to indicate the end of the list."
  }, 

  {
    "id": "211", 
    "name": "RPL_STATSLINKINFO", 
    "message": "<linkname> <sendq> <sent messages> <sent Kbytes> <received messages> <received Kbytes> <time open>", 
    "description": "reports statistics on a connection.  <linkname> identifies the particular connection, <sendq> is the amount of data that is queued and waiting to be sent <sent messages> the number of messages sent, and <sent Kbytes> the amount of data sent, in Kbytes. <received messages> and <received Kbytes> are the equivalent of <sent messages> and <sent Kbytes> for received data, respectively.  <time open> indicates how long ago the connection was opened, in seconds."
  }, 

  {
    "id": "212", 
    "name": "RPL_STATSCOMMANDS", 
    "message": "<command> <count> <byte count> <remote count>", 
    "description": "reports statistics on commands usage."
  }, 

  {
    "id": "219", 
    "name": "RPL_ENDOFSTATS", 
    "message": "<stats letter> :End of STATS report"
  }, 

  {
    "id": "242", 
    "name": "RPL_STATSUPTIME", 
    "message": ":Server Up <time>", 
    "description": "reports the server uptime."
  }, 

  {
    "id": "243", 
    "name": "RPL_STATSOLINE", 
    "message": "O <hostmask> * <name>", 
    "description": "reports the allowed hosts from where user may become IRC operators."
  }, 

  {
    "id": "221", 
    "name": "RPL_UMODEIS", 
    "message": "<user mode string>", 
    "description": "To answer a query about a client's own mode, RPL_UMODEIS is sent back."
  }, 

  {
    "id": "234", 
    "name": "RPL_SERVLIST", 
    "message": "<name> <server> <mask> <type> <hopcount> <info>"
  }, 

  {
    "id": "235", 
    "name": "RPL_SERVLISTEND", 
    "message": "<mask> <type> :End of service listing", 
    "description": "When listing services in reply to a SERVLIST message, a server is required to send the list back using the RPL_SERVLIST and RPL_SERVLISTEND messages.  A separate RPL_SERVLIST is sent for each service.  After the services have been listed (or if none present) a RPL_SERVLISTEND MUST be sent."
  }, 

  {
    "id": "251", 
    "name": "RPL_LUSERCLIENT", 
    "message": ":There are <users> users and <services> services on <servers> servers"
  }, 

  {
    "id": "252", 
    "name": "RPL_LUSEROP", 
    "message": "<integer> :operator(s) online"
  }, 

  {
    "id": "253", 
    "name": "RPL_LUSERUNKNOWN", 
    "message": "<integer> :unknown connection(s)"
  }, 

  {
    "id": "254", 
    "name": "RPL_LUSERCHANNELS", 
    "message": "<integer> :channels formed"
  }, 

  {
    "id": "255", 
    "name": "RPL_LUSERME", 
    "message": ":I have <clients> clients and <servers> servers", 
    "description": "In processing an LUSERS message, the server sends a set of replies from RPL_LUSERCLIENT, RPL_LUSEROP, RPL_USERUNKNOWN, RPL_LUSERCHANNELS and RPL_LUSERME.  When replying, a server MUST send back RPL_LUSERCLIENT and RPL_LUSERME.  The other replies are only sent back if a non-zero count is found for them."
  }, 

  {
    "id": "256", 
    "name": "RPL_ADMINME", 
    "message": "<server> :Administrative info"
  }, 

  {
    "id": "257", 
    "name": "RPL_ADMINLOC1", 
    "message": ":<admin info>"
  }, 

  {
    "id": "258", 
    "name": "RPL_ADMINLOC2", 
    "message": ":<admin info>"
  }, 

  {
    "id": "259", 
    "name": "RPL_ADMINEMAIL", 
    "message": ":<admin info>", 
    "description": "When replying to an ADMIN message, a server is expected to use replies RPL_ADMINME through to RPL_ADMINEMAIL and provide a text message with each.  For RPL_ADMINLOC1 a description of what city, state and country the server is in is expected, followed by details of the institution (RPL_ADMINLOC2) and finally the administrative contact for the server (an email address here is REQUIRED) in RPL_ADMINEMAIL."
  }, 

  {
    "id": "263", 
    "name": "RPL_TRYAGAIN", 
    "message": "<command> :Please wait a while and try again.", 
    "description": "When a server drops a command without processing it, it MUST use the reply RPL_TRYAGAIN to inform the originating client."
  }, 

  {
    "id": "401", 
    "name": "ERR_NOSUCHNICK", 
    "message": "<nickname> :No such nick/channel", 
    "description": "Used to indicate the nickname parameter supplied to a command is currently unused."
  }, 

  {
    "id": "402", 
    "name": "ERR_NOSUCHSERVER", 
    "message": "<server name> :No such server", 
    "description": "Used to indicate the server name given currently does not exist."
  }, 

  {
    "id": "403", 
    "name": "ERR_NOSUCHCHANNEL", 
    "message": "<channel name> :No such channel", 
    "description": "Used to indicate the given channel name is invalid."
  }, 

  {
    "id": "404", 
    "name": "ERR_CANNOTSENDTOCHAN", 
    "message": "<channel name> :Cannot send to channel", 
    "description": "Sent to a user who is either (a) not on a channel which is mode +n or (b) not a chanop (or mode +v) on a channel which has mode +m set or where the user is banned and is trying to send a PRIVMSG message to that channel."
  }, 

  {
    "id": "405", 
    "name": "ERR_TOOMANYCHANNELS", 
    "message": "<channel name> :You have joined too many channels", 
    "description": "Sent to a user when they have joined the maximum number of allowed channels and they try to join another channel."
  }, 

  {
    "id": "406", 
    "name": "ERR_WASNOSUCHNICK", 
    "message": "<nickname> :There was no such nickname", 
    "description": "Returned by WHOWAS to indicate there is no history information for that nickname."
  }, 

  {
    "id": "407", 
    "name": "ERR_TOOMANYTARGETS", 
    "message": "<target> :<error code> recipients. <abort message>", 
    "description": "Returned to a client which is attempting to send a PRIVMSG/NOTICE using the user@host destination format and for a user@host which has several occurrences. Returned to a client which trying to send a PRIVMSG/NOTICE to too many recipients. Returned to a client which is attempting to JOIN a safe channel using the shortname when there are more than one such channel."
  }, 

  {
    "id": "408", 
    "name": "ERR_NOSUCHSERVICE", 
    "message": "<service name> :No such service", 
    "description": "Returned to a client which is attempting to send a SQUERY to a service which does not exist."
  }, 

  {
    "id": "409", 
    "name": "ERR_NOORIGIN", 
    "message": ":No origin specified", 
    "description": "PING or PONG message missing the originator parameter."
  }, 

  {
    "id": "411", 
    "name": "ERR_NORECIPIENT", 
    "message": ":No recipient given (<command>)"
  }, 

  {
    "id": "412", 
    "name": "ERR_NOTEXTTOSEND", 
    "message": ":No text to send"
  }, 

  {
    "id": "413", 
    "name": "ERR_NOTOPLEVEL", 
    "message": "<mask> :No toplevel domain specified"
  }, 

  {
    "id": "414", 
    "name": "ERR_WILDTOPLEVEL", 
    "message": "<mask> :Wildcard in toplevel domain"
  }, 

  {
    "id": "415", 
    "name": "ERR_BADMASK", 
    "message": "<mask> :Bad Server/host mask", 
    "description": "415 are returned by PRIVMSG to indicate that the message wasn't delivered for some reason. ERR_NOTOPLEVEL and ERR_WILDTOPLEVEL are errors that are returned when an invalid use of PRIVMSG $<server> or PRIVMSG #<host> is attempted."
  }, 

  {
    "id": "421", 
    "name": "ERR_UNKNOWNCOMMAND", 
    "message": "<command> :Unknown command", 
    "description": "Returned to a registered client to indicate that the command sent is unknown by the server."
  }, 

  {
    "id": "422", 
    "name": "ERR_NOMOTD", 
    "message": ":MOTD File is missing", 
    "description": "Server's MOTD file could not be opened by the server."
  }, 

  {
    "id": "423", 
    "name": "ERR_NOADMININFO", 
    "message": "<server> :No administrative info available", 
    "description": "Returned by a server in response to an ADMIN message when there is an error in finding the appropriate information."
  }, 

  {
    "id": "424", 
    "name": "ERR_FILEERROR", 
    "message": ":File error doing <file op> on <file>", 
    "description": "Generic error message used to report a failed file operation during the processing of a message."
  }, 

  {
    "id": "431", 
    "name": "ERR_NONICKNAMEGIVEN", 
    "message": ":No nickname given", 
    "description": "Returned when a nickname parameter expected for a command and isn't found."
  }, 

  {
    "id": "432", 
    "name": "ERR_ERRONEUSNICKNAME", 
    "message": "<nick> :Erroneous nickname", 
    "description": "Returned after receiving a NICK message which contains characters which do not fall in the defined set.  See section 2.3.1 for details on valid nicknames."
  }, 

  {
    "id": "433", 
    "name": "ERR_NICKNAMEINUSE", 
    "message": "<nick> :Nickname is already in use", 
    "description": "Returned when a NICK message is processed that results in an attempt to change to a currently existing nickname."
  }, 

  {
    "id": "436", 
    "name": "ERR_NICKCOLLISION", 
    "message": "<nick> :Nickname collision KILL from <user>@<host>", 
    "description": "Returned by a server to a client when it detects a nickname collision (registered of a NICK that already exists by another server)."
  }, 

  {
    "id": "437", 
    "name": "ERR_UNAVAILRESOURCE", 
    "message": "<name> :Nick/channel is temporarily unavailable", 
    "description": "Returned by a server to a user trying to join a channel currently blocked by the channel delay mechanism. Returned by a server to a user trying to change nickname when the desired nickname is blocked by the nick delay mechanism."
  }, 

  {
    "id": "441", 
    "name": "ERR_USERNOTINCHANNEL", 
    "message": "<nick> <channel> :They aren't on that channel", 
    "description": "Returned by the server to indicate that the target user of the command is not on the given channel."
  }, 

  {
    "id": "442", 
    "name": "ERR_NOTONCHANNEL", 
    "message": "<channel> :You're not on that channel", 
    "description": "Returned by the server whenever a client tries to perform a channel affecting command for which the client isn't a member."
  }, 

  {
    "id": "443", 
    "name": "ERR_USERONCHANNEL", 
    "message": "<user> <channel> :is already on channel", 
    "description": "Returned when a client tries to invite a user to a channel they are already on."
  }, 

  {
    "id": "444", 
    "name": "ERR_NOLOGIN", 
    "message": "<user> :User not logged in", 
    "description": "Returned by the summon after a SUMMON command for a user was unable to be performed since they were not logged in."
  }, 

  {
    "id": "445", 
    "name": "ERR_SUMMONDISABLED", 
    "message": ":SUMMON has been disabled", 
    "description": "Returned as a response to the SUMMON command.  MUST be returned by any server which doesn't implement it."
  }, 

  {
    "id": "446", 
    "name": "ERR_USERSDISABLED", 
    "message": ":USERS has been disabled", 
    "description": "Returned as a response to the USERS command.  MUST be returned by any server which does not implement it."
  }, 

  {
    "id": "451", 
    "name": "ERR_NOTREGISTERED", 
    "message": ":You have not registered", 
    "description": "Returned by the server to indicate that the client MUST be registered before the server will allow it to be parsed in detail."
  }, 

  {
    "id": "461", 
    "name": "ERR_NEEDMOREPARAMS", 
    "message": "<command> :Not enough parameters", 
    "description": "Returned by the server by numerous commands to indicate to the client that it didn't supply enough parameters."
  }, 

  {
    "id": "462", 
    "name": "ERR_ALREADYREGISTRED", 
    "message": ":Unauthorized command (already registered)", 
    "description": "Returned by the server to any link which tries to change part of the registered details (such as password or user details from second USER message)."
  }, 

  {
    "id": "463", 
    "name": "ERR_NOPERMFORHOST", 
    "message": ":Your host isn't among the privileged", 
    "description": "Returned to a client which attempts to register with a server which does not been setup to allow connections from the host the attempted connection is tried."
  }, 

  {
    "id": "464", 
    "name": "ERR_PASSWDMISMATCH", 
    "message": ":Password incorrect", 
    "description": "Returned to indicate a failed attempt at registering a connection for which a password was required and was either not given or incorrect."
  }, 

  {
    "id": "465", 
    "name": "ERR_YOUREBANNEDCREEP", 
    "message": ":You are banned from this server", 
    "description": "Returned after an attempt to connect and register yourself with a server which has been setup to explicitly deny connections to you."
  }, 

  {
    "id": "466", 
    "name": "ERR_YOUWILLBEBANNED", 
    "message": "You will be banned", 
    "description": "Sent by a server to a user to inform that access to the server will soon be denied."
  }, 

  {
    "id": "467", 
    "name": "ERR_KEYSET", 
    "message": "<channel> :Channel key already set"
  }, 

  {
    "id": "471", 
    "name": "ERR_CHANNELISFULL", 
    "message": "<channel> :Cannot join channel (+l)"
  }, 

  {
    "id": "472", 
    "name": "ERR_UNKNOWNMODE", 
    "message": "<char> :is unknown mode char to me for <channel>"
  }, 

  {
    "id": "473", 
    "name": "ERR_INVITEONLYCHAN", 
    "message": "<channel> :Cannot join channel (+i)"
  }, 

  {
    "id": "474", 
    "name": "ERR_BANNEDFROMCHAN", 
    "message": "<channel> :Cannot join channel (+b)"
  }, 

  {
    "id": "475", 
    "name": "ERR_BADCHANNELKEY", 
    "message": "<channel> :Cannot join channel (+k)"
  }, 

  {
    "id": "476", 
    "name": "ERR_BADCHANMASK", 
    "message": "<channel> :Bad Channel Mask"
  }, 

  {
    "id": "477", 
    "name": "ERR_NOCHANMODES", 
    "message": "<channel> :Channel doesn't support modes"
  }, 

  {
    "id": "478", 
    "name": "ERR_BANLISTFULL", 
    "message": "<channel> <char> :Channel list is full"
  }, 

  {
    "id": "481", 
    "name": "ERR_NOPRIVILEGES", 
    "message": "Permission Denied : You're not an IRC operator", 
    "description": "Any command requiring operator privileges to operate MUST return this error to indicate the attempt was unsuccessful."
  }, 

  {
    "id": "482", 
    "name": "ERR_CHANOPRIVSNEEDED", 
    "message": "<channel> :You're not channel operator", 
    "description": "Any command requiring 'chanop' privileges (such as MODE messages) MUST return this error if the client making the attempt is not a chanop on the specified channel."
  }, 

  {
    "id": "483", 
    "name": "ERR_CANTKILLSERVER", 
    "message": ":You can't kill a server!", 
    "description": "Any attempts to use the KILL command on a server are to be refused and this error returned directly to the client."
  }, 

  {
    "id": "484", 
    "name": "ERR_RESTRICTED", 
    "message": ":Your connection is restricted!", 
    "description": "Sent by the server to a user upon connection to indicate the restricted nature of the connection (user mode '+r')."
  }, 

  {
    "id": "485", 
    "name": "ERR_UNIQOPPRIVSNEEDED", 
    "message": ":You're not the original channel operator", 
    "description": "Any MODE requiring channel creator privileges MUST return this error if the client making the attempt is not a chanop on the specified channel."
  }, 

  {
    "id": "491", 
    "name": "ERR_NOOPERHOST", 
    "message": ":No O-lines for your host", 
    "description": "If a client sends an OPER message and the server has not been configured to allow connections from the client's host as an operator, this error MUST be returned."
  }, 

  {
    "id": "501", 
    "name": "ERR_UMODEUNKNOWNFLAG", 
    "message": ":Unknown MODE flag", 
    "description": "Returned by the server to indicate that a MODE message was sent with a nickname parameter and that the a mode flag sent was not recognized."
  }, 

  {
    "id": "502", 
    "name": "ERR_USERSDONTMATCH", 
    "message": ":Cannot change mode for other users", 
    "description": "Error sent to any user trying to view or change the user mode for a user other than themselves."
  }, 

  {
    "id": "705", 
    "name": "RPL_HELP", 
    "message": "<string>", 
    "description": "HELP command"
  }, 

  {
    "id": "706", 
    "name": "RPL_ENDOFHELP", 
    "message": "End of /HELP", 
    "description": "End of HELP command"
  }
]